SEP H5N5 NA Phylogenetic tree
…
saving in individual objects (copy). We will reuse the plot data

#> # A tibble: 81 × 15
#>    parent  node branch.length label isTip      x     y branch angle
#>     <int> <int>         <dbl> <chr> <lgl>  <dbl> <dbl>  <dbl> <dbl>
#>  1     83    83    0          N1    FALSE 0       5.19 0       22.8
#>  2     83    84    0.0546     N2    FALSE 0.0546  9.37 0.0273  41.1
#>  3     84    85    0.00141    N3    FALSE 0.0560 16.2  0.0553  71.3
#>  4     85    86    0.00211    N4    FALSE 0.0581 26.7  0.0570 117. 
#>  5     86    87    0.00000231 N5    FALSE 0.0581 28.9  0.0581 127. 
#>  6     87    88    0.00650    N6    FALSE 0.0646 31.9  0.0614 140. 
#>  7     88    89    0.00242    N7    FALSE 0.0670 36.7  0.0658 161. 
#>  8     89    90    0.0202     N8    FALSE 0.0872 44.7  0.0771 196. 
#>  9     90    91    0.0189     N9    FALSE 0.106  52.4  0.0967 230. 
#> 10     91    92    0.00000255 N10   FALSE 0.106  53.7  0.106  236. 
#>    labels_bootstrap node_depth descendants_tips_from_node isMono_noboot isMono
#>    <chr>                 <dbl> <list>                     <lgl>         <lgl> 
#>  1 100                      82 <chr [82]>                 TRUE          TRUE  
#>  2 98                       81 <chr [81]>                 TRUE          TRUE  
#>  3 73                       79 <chr [79]>                 TRUE          FALSE 
#>  4 97                       59 <chr [59]>                 TRUE          TRUE  
#>  5 53                       57 <chr [57]>                 TRUE          FALSE 
#>  6 97                       56 <chr [56]>                 TRUE          TRUE  
#>  7 67                       55 <chr [55]>                 TRUE          FALSE 
#>  8 100                      52 <chr [52]>                 TRUE          TRUE  
#>  9 100                      32 <chr [32]>                 TRUE          TRUE  
#> 10 50                       31 <chr [31]>                 TRUE          FALSE 
#>    edge_num
#>       <int>
#>  1       NA
#>  2        1
#>  3        2
#>  4        3
#>  5        4
#>  6        5
#>  7        6
#>  8        7
#>  9        8
#> 10        9
#> # ℹ 71 more rows

Checking data - ok it has nested the descendants from nodes

#> # A tibble: 82 × 1
#>    descendants_tips_from_node
#>    <chr>                     
#>  1 EPI_ISL_1123358           
#>  2 EPI_ISL_644737            
#>  3 EPI_ISL_1255051           
#>  4 EPI_ISL_16209277          
#>  5 EPI_ISL_16209278          
#>  6 2022_07_1141_3            
#>  7 2022_07_100               
#>  8 2022_07_895_1             
#>  9 2022_07_897_3             
#> 10 EPI_ISL_18455201          
#> # ℹ 72 more rows
…
Selecting one column where several tips are respresented and showing an example of how the nested variable looks like, using eg. nested country variable

note for this data set its only nodes

#> # A tibble: 79 × 3
#>    label            country              pos
#>    <chr>            <chr>              <int>
#>  1 EPI_ISL_644737   Denmark                1
#>  2 EPI_ISL_1255051  Poland                 2
#>  3 EPI_ISL_16209277 Russian Federation     3
#>  4 EPI_ISL_16209278 Russian Federation     4
#>  5 2022_07_1141_3   Norway                 5
#>  6 2022_07_100      Norway                 6
#>  7 2022_07_895_1    Norway                 7
#>  8 2022_07_897_3    Norway                 8
#>  9 EPI_ISL_18455201 Norway                 9
#> 10 2022_07_1141_4   Norway                10
#> # ℹ 69 more rows
…
