SEP H5N5 HA Phylogenetic tree
…
Selecting one column where several tips are respresented and showing an example of how the nested variable looks like, using eg. nested country variable

note for this data set its only nodes

#> # A tibble: 84 × 3
#>    label            country          pos
#>    <chr>            <chr>          <int>
#>  1 EPI_ISL_1123358  United Kingdom     1
#>  2 EPI_ISL_644737   Denmark            2
#>  3 EPI_ISL_12028892 Norway             3
#>  4 2022_04_13257_1  Norway             4
#>  5 2022_07_1140_1   Norway             5
#>  6 2022_07_1141_1   Norway             6
#>  7 EPI_ISL_18455200 Norway             7
#>  8 2022_07_1233_1   Norway             8
#>  9 2022_07_446      Norway             9
#> 10 2022_07_693_1    Norway            10
#> # ℹ 74 more rows
…
