SEP H5N1 HA Phylogenetic tree
…
exploring the structure

saving in individual objects (copy). We will reuse the plot data

2. Adding metadata to nodes and tips - integration of duplicates metadata

we add a column where all the isolates (duplicated and non duplicated) that are represented at a tip and node are listed.

We call this column tip_metalink This column will be used to make the join between the tree and the metadata that is represented at each tip or node. It uses the metadata table for duplicates.

(This can take some time). > Opps check defaults for the function if you renamed the objects!

Note that isMono_x has no information for the tips (this is normal).

#> # A tibble: 2,825 × 16
#> # Rowwise: 
#>    parent  node branch.length label            isTip      x     y branch angle
#>     <int> <int>         <dbl> <chr>            <lgl>  <dbl> <dbl>  <dbl> <dbl>
#>  1   1471     1    0.000595   EPI_ISL_18455202 TRUE  0.0119   494 0.0116  125.
#>  2   1471     2    0.000595   EPI_ISL_14573031 TRUE  0.0119   495 0.0116  126.
#>  3   1470     3    0.00000253 2022_07_1236_1   TRUE  0.0113   493 0.0113  125.
#>  4   1469     4    0.00000253 EPI_ISL_15267026 TRUE  0.0113   492 0.0113  125.
#>  5   1468     5    0.000596   EPI_ISL_14811929 TRUE  0.0119   491 0.0116  125.
#>  6   1467     6    0.000595   2022_07_1143_1   TRUE  0.0119   490 0.0116  124.
#>  7   1466     7    0.00000253 2022_04_20940_1  TRUE  0.0107   489 0.0107  124.
#>  8   1465     8    0.00119    EPI_ISL_15267024 TRUE  0.0119   488 0.0113  124.
#>  9   1473     9    0.00119    EPI_ISL_16507108 TRUE  0.0125   486 0.0119  123.
#> 10   1473    10    0.00239    EPI_ISL_15579544 TRUE  0.0136   487 0.0125  124.
#>    labels_bootstrap node_depth descendants_tips_from_node isMono_noboot isMono
#>    <chr>                 <dbl> <list>                     <lgl>         <lgl> 
#>  1 EPI_ISL_18455202          1 <NULL>                     NA            NA    
#>  2 EPI_ISL_14573031          1 <NULL>                     NA            NA    
#>  3 2022_07_1236_1            1 <NULL>                     NA            NA    
#>  4 EPI_ISL_15267026          1 <NULL>                     NA            NA    
#>  5 EPI_ISL_14811929          1 <NULL>                     NA            NA    
#>  6 2022_07_1143_1            1 <NULL>                     NA            NA    
#>  7 2022_04_20940_1           1 <NULL>                     NA            NA    
#>  8 EPI_ISL_15267024          1 <NULL>                     NA            NA    
#>  9 EPI_ISL_16507108          1 <NULL>                     NA            NA    
#> 10 EPI_ISL_15579544          1 <NULL>                     NA            NA    
#>    edge_num tip_metalink
#>       <int> <list>      
#>  1       52 <chr [2]>   
#>  2       53 <chr [1]>   
#>  3       54 <chr [1]>   
#>  4       55 <chr [2]>   
#>  5       56 <chr [1]>   
#>  6       57 <chr [1]>   
#>  7       58 <chr [1]>   
#>  8       59 <chr [1]>   
#>  9       62 <chr [1]>   
#> 10       63 <chr [1]>   
#> # ℹ 2,815 more rows
…
