SEP H5N5 Phylogenetic tree
…
saving in individual objects (copy). We will reuse the plot data

#> # A tibble: 83 × 15
#>    parent  node branch.length label isTip        x     y   branch angle
#>     <int> <int>         <dbl> <chr> <lgl>    <dbl> <dbl>    <dbl> <dbl>
#>  1     85    85    0          N1    FALSE 0         12.2 0         52.4
#>  2     85    86    0.000682   N2    FALSE 0.000682  23.4 0.000341 100. 
#>  3     86    87    0.00000214 N3    FALSE 0.000684  39.7 0.000683 170. 
#>  4     87    88    0.00000214 N4    FALSE 0.000686  42.9 0.000685 184. 
#>  5     88    89    0.00118    N5    FALSE 0.00187   47.9 0.00128  205. 
#>  6     89    90    0.00178    N6    FALSE 0.00364   54.0 0.00275  232. 
#>  7     90    91    0.000990   N7    FALSE 0.00463   57.2 0.00414  245. 
#>  8     91    92    0.000489   N8    FALSE 0.00512   60.3 0.00488  259. 
#>  9     92    93    0.00148    N9    FALSE 0.00660   65.6 0.00586  281. 
#> 10     93    94    0.000587   N10   FALSE 0.00718   73.1 0.00689  313. 
#>    labels_bootstrap node_depth descendants_tips_from_node isMono_noboot isMono
#>    <chr>                 <dbl> <list>                     <lgl>         <lgl> 
#>  1 ""                       84 <chr [84]>                 TRUE          NA    
#>  2 "82"                     83 <chr [83]>                 TRUE          FALSE 
#>  3 "19"                     49 <chr [49]>                 TRUE          FALSE 
#>  4 "38"                     47 <chr [47]>                 TRUE          FALSE 
#>  5 "94"                     46 <chr [46]>                 TRUE          FALSE 
#>  6 "96"                     35 <chr [35]>                 TRUE          TRUE  
#>  7 "87"                     31 <chr [31]>                 TRUE          FALSE 
#>  8 "87"                     30 <chr [30]>                 TRUE          FALSE 
#>  9 "85"                     29 <chr [29]>                 TRUE          FALSE 
#> 10 "82"                     15 <chr [15]>                 TRUE          FALSE 
#>    edge_num
#>       <int>
#>  1       NA
#>  2        1
#>  3        2
#>  4        3
#>  5        4
#>  6        5
#>  7        6
#>  8        7
#>  9        8
#> 10        9
#> # ℹ 73 more rows

Checking data - ok it has nested the descendants from nodes

#> # A tibble: 84 × 1
#>    descendants_tips_from_node
#>    <chr>                     
#>  1 EPI_ISL_1123358           
#>  2 EPI_ISL_644737            
#>  3 EPI_ISL_12028892          
#>  4 2022_04_13257_1           
#>  5 2022_07_1140_1            
#>  6 2022_07_1141_1            
#>  7 EPI_ISL_18455200          
#>  8 2022_07_1233_1            
#>  9 2022_07_446               
#> 10 2022_07_693_1             
#> # ℹ 74 more rows
…
Selecting one column where several tips are respresented and showing an example of how the nested variable looks like, using eg. nested country variable

note for this data set its only nodes

#> # A tibble: 84 × 3
#>    label            country          pos
#>    <chr>            <chr>          <int>
#>  1 EPI_ISL_1123358  United Kingdom     1
#>  2 EPI_ISL_644737   Denmark            2
#>  3 EPI_ISL_12028892 Norway             3
#>  4 2022_04_13257_1  Norway             4
#>  5 2022_07_1140_1   Norway             5
#>  6 2022_07_1141_1   Norway             6
#>  7 EPI_ISL_18455200 Norway             7
#>  8 2022_07_1233_1   Norway             8
#>  9 2022_07_446      Norway             9
#> 10 2022_07_693_1    Norway            10
#> # ℹ 74 more rows
…
