SEP H5N1 NA Phylogenetic tree
…
saving in individual objects (copy). We will reuse the plot data We need to add the tips in descendants from nodes - so its homogeneous for next function

#> # A tibble: 4,772 × 15
#> # Rowwise: 
#>    parent  node branch.length label isTip       x      y   branch angle
#>     <int> <int>         <dbl> <chr> <lgl>   <dbl>  <dbl>    <dbl> <dbl>
#>  1   4897  4897    0          N1    FALSE 0         38.8 0         2.85
#>  2   4897  4898    0.00108    N2    FALSE 0.00108   75.6 0.000540  5.56
#>  3   4898  4899    0.00175    N3    FALSE 0.00283  143.  0.00196  10.5 
#>  4   4899  4900    0.00117    N4    FALSE 0.00400  277.  0.00342  20.4 
#>  5   4900  4901    0.00000253 N5    FALSE 0.00400  545.  0.00400  40.1 
#>  6   4901  4902    0.00000253 N6    FALSE 0.00401 1045.  0.00401  76.8 
#>  7   4902  4903    0.00000253 N7    FALSE 0.00401  336.  0.00401  24.7 
#>  8   4903  4904    0.00000253 N8    FALSE 0.00401  351.  0.00401  25.8 
#>  9   4904  4905    0.000583   N9    FALSE 0.00460  376.  0.00430  27.6 
#> 10   4905  4906    0.00000296 N10   FALSE 0.00460  389.  0.00460  28.6 
#>    labels_bootstrap node_depth descendants_tips_from_node isMono_noboot isMono
#>    <chr>                 <dbl> <list>                     <lgl>         <lgl> 
#>  1 100                    4896 <chr [4,896]>              TRUE          TRUE  
#>  2 96                     4889 <chr [4,889]>              TRUE          TRUE  
#>  3 96                     4888 <chr [4,888]>              TRUE          TRUE  
#>  4 95                     4887 <chr [4,887]>              TRUE          TRUE  
#>  5 10                     4886 <chr [4,886]>              TRUE          FALSE 
#>  6 1                      4579 <chr [4,579]>              TRUE          FALSE 
#>  7 1                       537 <chr [537]>                TRUE          FALSE 
#>  8 10                      530 <chr [530]>                TRUE          FALSE 
#>  9 58                      494 <chr [494]>                TRUE          FALSE 
#> 10 43                      484 <chr [484]>                TRUE          FALSE 
#>    edge_num
#>       <int>
#>  1       NA
#>  2        1
#>  3        2
#>  4        3
#>  5        4
#>  6        5
#>  7        6
#>  8        7
#>  9        8
#> 10        9
#> # ℹ 4,762 more rows

Checking data - ok it has nested the descendants from nodes

#> # A tibble: 4,896 × 1
#>    descendants_tips_from_node
#>    <chr>                     
#>  1 EPI_ISL_8768966           
#>  2 EPI_ISL_13465456          
#>  3 EPI_ISL_16838579          
#>  4 EPI_ISL_11798568          
#>  5 EPI_ISL_6761007           
#>  6 EPI_ISL_13026237          
#>  7 EPI_ISL_13370571          
#>  8 2022_07_1073_2            
#>  9 2022_07_1235_1            
#> 10 2022_07_1361_1            
#> # ℹ 4,886 more rows
…
Selecting one column where several tips are represented and showing an example of how the nested variable looks like, using eg. nested country variable

note for this data set its only nodes

#> # A tibble: 4,897 × 3
#>    label            country              pos
#>    <chr>            <chr>              <int>
#>  1 EPI_ISL_8768966  Russian Federation     1
#>  2 EPI_ISL_13465456 Israel                 2
#>  3 EPI_ISL_16838579 Russian Federation     3
#>  4 EPI_ISL_11798568 Denmark                4
#>  5 EPI_ISL_6761007  Netherlands            5
#>  6 EPI_ISL_13026237 Luxembourg             6
#>  7 EPI_ISL_13370571 United Kingdom         7
#>  8 2022_07_1073_2   Norway                 8
#>  9 2022_07_1235_1   Norway                 9
#> 10 2022_07_1361_1   Norway                10
#> # ℹ 4,887 more rows

pos is the index, in case we need to refer to it. label is the label of the sequences that are represented

Now we can look at the contingency table for the same variable

#> # A tibble: 57 × 4
#>    country            `freq_levels@country` `nb_levels@country`   pos
#>    <chr>                              <int>               <int> <int>
#>  1 Russian Federation                   143                  57     1
#>  2 Israel                                 9                  57     2
#>  3 Denmark                               24                  57     3
#>  4 Netherlands                          352                  57     4
#>  5 Luxembourg                             9                  57     5
#>  6 United Kingdom                       489                  57     6
#>  7 Norway                                65                  57     7
#>  8 Sweden                                23                  57     8
#>  9 Germany                               66                  57     9
#> 10 Spain                                111                  57    10
#> # ℹ 47 more rows
…
