SEP H5N1 NA Phylogenetic tree
…
for consistency with previous script - we also add tipmetalink

linking metadata to the tree data for the selected column by creating nested dataframes for each variable and creating contingency tables for each nested variable

We create contingency tables and nested variables that represent the metadata for each node and tip (label column).

Note here, we come back to the original metadata table, because we have the list of tips that is represented at each label (tip or node)

Here we do not want to use interaction between factors

Selecting one column where several tips are represented and showing an example of how the nested variable looks like, using eg. nested country variable

note for this data set its only nodes

#> # A tibble: 4,743 × 3
#>    label            country              pos
#>    <chr>            <chr>              <int>
#>  1 EPI_ISL_17414663 Nigeria                1
#>  2 EPI_ISL_17584750 France                 2
#>  3 EPI_ISL_16838578 Russian Federation     3
#>  4 EPI_ISL_12917757 Israel                 4
#>  5 EPI_ISL_13369774 United Kingdom         5
#>  6 EPI_ISL_7753290  Germany                6
#>  7 EPI_ISL_13370563 United Kingdom         7
#>  8 EPI_ISL_13370629 United Kingdom         8
#>  9 EPI_ISL_13370895 United Kingdom         9
#> 10 2022_07_1597_1   Norway                10
#> # ℹ 4,733 more rows

pos is the index, in case we need to refer to it. label is the label of the sequences that are represented

Now we can look at the contingency table for the same variable

#> # A tibble: 58 × 4
#>    country            `freq_levels@country` `nb_levels@country`   pos
#>    <chr>                              <int>               <int> <int>
#>  1 Nigeria                               17                  58     1
#>  2 France                                32                  58     2
#>  3 Russian Federation                    21                  58     3
#>  4 Israel                                 9                  58     4
#>  5 United Kingdom                       449                  58     5
#>  6 Germany                               64                  58     6
#>  7 Norway                                66                  58     7
#>  8 Belgium                               79                  58     8
#>  9 Spain                                107                  58     9
#> 10 Sweden                                25                  58    10
#> # ℹ 48 more rows
…
